{
  "event": {
    "rule_id": "Xs3UieyyCj",
    "timestamp": 1553785248,
    "res_inst": "",
    "fragid": "VideoTranscoder",
    "zone": 3,
    "action": "scale_out",
    "avg_cpu": 92,
    "avg _ram": 71
  }
}